463737 928498 525
144331 233703 443
316542 679479 509
297827 388207 441
354924 653663 509
317415 640678 509
390904 555763 470
865772 921005 476
699872 879645 525
81420 554649 470
814290 844116 525
693388 764412 504
146806 896974 525
540204 865727 525
625152 733929 509
9274 804820 509
859119 990603 507
48122 91896 351
124401 279664 443
306578 753435 509
651802 893724 525
153802 519392 470
917325 928102 476
904650 936082 476
382274 470706 449
591482 817792 509
22063 591072 470
681429 867225 525
128215 886777 525
259986 670583 509
790190 877959 525
472694 685926 509
518897 953926 525
407546 947674 525
241888 596399 470
70875 686262 509
334824 961770 525
518897 844668 525
463397 976181 525
773342 893312 525
444312 521785 470
207156 539081 470
944270 982907 458
652133 726278 504
104888 457055 449
777738 839565 525
75132 642545 509
374643 492318 449
204873 478045 449
19585 639024 509
880186 945843 507
83541 239874 443
363862 645886 509
854794 990609 507
757363 887633 525
505603 646991 509
533232 653396 509
822366 938630 525
407590 973254 525
60482 925031 525
935010 981624 507
499630 812131 509
851987 942316 507
546816 980082 525
721096 918371 525
893094 919523 476
478415 929873 525
327363 436399 449
473487 616901 470
495499 728736 509
831017 952490 525
343290 422375 449
92545 123781 354
225262 524212 470
665968 995405 525
446407 658077 509
4225 240823 443
502887 565984 470
424557 843552 525
286664 852424 525
80812 689550 509
633060 669929 442
945189 975375 458
574351 726599 509
898814 901408 401
730915 758179 424
430385 600305 470
903859 912655 476
35357 627697 509
694584 699445 367
373816 895586 525
126221 954097 525
511397 813909 509
199426 831249 509
932582 962440 507
96368 397250 443
396918 684150 509
645716 836995 504
60651 252354 443
177832 481665 449
892819 922597 476
373961 534256 470
741164 759281 424
708670 914560 525
476100 891302 525
458988 677463 509
511269 853953 525
634454 788433 504
162908 460513 449
760975 834426 468
282689 570958 470
63471 412467 449
582501 606323 434
571548 876160 525
212758 473132 449
643032 935634 525
645081 897956 525
322952 832358 509
991031 995278 365
255633 438800 449
114808 360907 443
83322 249421 443
124776 598032 470
844867 982648 507
337806 430857 449
605902 625793 447
301613 877123 525
559692 705432 509
546050 570648 452
488743 631767 509
989595 992758 321
593370 980371 525
726806 862935 525
104537 293730 443
734949 976505 525
109261 862693 525
255757 843058 525
262931 661854 509
184601 860411 525
122387 300130 443
200413 330681 443
439788 668848 509
799428 872527 525
582339 901646 525
769443 972767 525
672973 982689 525
140494 997151 525
456828 940298 525
325855 959242 525
208579 725007 509
143882 913403 525
623085 738118 509
113339 728231 509
433621 661478 509
515229 687347 509
63522 889586 525
302645 653118 509
713600 903186 525
351974 800154 509
851210 927812 476
107310 595667 470
800882 974309 525
160102 563939 470
698873 816053 504
670945 797266 504
484626 977424 525
758851 870543 525
992582 993253 352
775534 898638 525
328491 673755 509
494123 724279 509
376480 436096 449
525333 537173 408
263738 575001 470
820476 959086 525
229328 300586 443
229109 494907 449
939105 988877 507
232524 459230 449
761661 909369 525
1034 676578 509
979251 994342 427
800876 806078 406
700633 711322 504
776107 887292 525
815689 887445 525
571963 821044 509
428560 561898 470
996811 999604 440
446226 923533 525
598590 853147 525
349744 790883 509
30229 986140 525
437889 665684 509
366327 613181 470
933145 991523 507
847841 887317 445
849555 870315 419
731846 943768 525
74627 77982 351
210847 549258 470
102960 887631 525
736739 957372 525
35018 374358 443
163043 193044 365
994064 997191 365
870464 966138 507
847294 960303 507
93133 280868 443
862967 961293 507
825167 951701 525
991482 995006 365
767534 884149 525
484188 703630 509
196274 399946 443
498956 910597 525
365476 687650 509
197785 546997 470
575864 998649 525
589788 848887 525
577209 959966 525
559605 956795 525
786492 870267 525
106424 576135 470
803398 811784 406
